{
	"apiKey": "AIzaSyDuky1GNQPNPRzkRmQDmA_D9uOuOM2TRec",
	"authDomain": "productlist-34428.firebaseapp.com",
	"databaseURL": "https://productlist-34428.firebaseio.com",
	"projectId": "productlist-34428",
	"storageBucket": "productlist-34428.appspot.com",
	"messagingSenderId": "151793158044"
}